<?xml version="1.0" encoding="UTF-8" standalone="no"?>
<svg xmlns:dc="http://purl.org/dc/elements/1.1/" xmlns:cc="http://creativecommons.org/ns#" xmlns:rdf="http://www.w3.org/1999/02/22-rdf-syntax-ns#" xmlns:svg="http://www.w3.org/2000/svg" xmlns="http://www.w3.org/2000/svg" xmlns:xlink="http://www.w3.org/1999/xlink" xmlns:sodipodi="http://sodipodi.sourceforge.net/DTD/sodipodi-0.dtd" xmlns:inkscape="http://www.inkscape.org/namespaces/inkscape" width="238" height="250" id="svg2" version="1.1" inkscape:version="0.91 r13725" sodipodi:docname="EuroAlgeria.svg">
  <metadata id="metadata58">
    <rdf:RDF>
      <cc:Work rdf:about="">
        <dc:format>image/svg+xml</dc:format>
        <dc:type rdf:resource="http://purl.org/dc/dcmitype/StillImage"/>
        <dc:title/>
      </cc:Work>
    </rdf:RDF>
  </metadata>
  <defs id="defs56">
    <clipPath id="c">
      <!-- Inner circle of crescent shifted right from center by 5*sqrt(3)-sqrt(39) = 2.415256 -->
      <path inkscape:connector-curvature="0" d="M 0,0 H 60 V 40 H 0 z m 32.415256,28 a 8,8 0 1 0 0,-16 8,8 0 1 0 0,16" id="path5"/>
    </clipPath>
  </defs>
  <sodipodi:namedview pagecolor="#ffffff" bordercolor="#666666" borderopacity="1" objecttolerance="10" gridtolerance="10" guidetolerance="10" inkscape:pageopacity="0" inkscape:pageshadow="2" inkscape:window-width="1366" inkscape:window-height="705" id="namedview54" showgrid="false" inkscape:zoom="2.492532" inkscape:cx="112.8178" inkscape:cy="124.47034" inkscape:window-x="-8" inkscape:window-y="-8" inkscape:window-maximized="1" inkscape:current-layer="svg2"/>
  <path transform="matrix(0.99619473,-0.08715541,0,1,0,0)" d="m106.4049 71.9438 53.2162-49.045 63.1337 27.4207-7.3303 94.0633-109.0196 101.301z" fill="#c13" id="path4" style="fill:#ffffff;fill-opacity:1"/>
  <path transform="matrix(0.99619473,-0.08715541,0,1,0,0)" d="m23.457 65.9814 49.2855-27.0509 34.6663 33.1008 0 169.874-95.1628-92.5081z" fill="#fff" id="path6" style="fill:#006233;fill-opacity:1"/>
  <path d="m25.005 111.471c0.6-53.792 28.594-70.628 43.839-70.628 21.29 0 30.083 16.253 31.52 23.449 1.436 7.19 9.494 12.941 12.083 1.147 2.591-11.794 27.637-47.758 58.42-47.758 28.192 0 37.956 29.073 37.111 53.801-2.307 67.318-89.028 121.045-100.443 154.97-10.164-20.547-83.247-50.248-82.53-114.981l0 0zM180.938 1c-25.317 0-55.258 18.698-73.381 49.771-4.89-11.222-22.313-23.451-43.024-23.451-16.689 0-63.533 20.858-63.533 88.178 0 86.88 87.901 104.725 105.671 131.729 1.221 1.857 5.154 3.26 6.655-1.177 14.179-41.845 124.125-89.125 124.125-174.279-0.001-47.756-31.197-70.771-56.513-70.771z" id="path52"/>
  <g style="fill:#d21034" transform="matrix(3.2696149,0,0,3.2696149,8.9379668,61.761224)" id="g11">
    <!-- Distance between center of star and center of flag is 5*cos(36 deg) = 4.045085 -->
    <g id="g4147" transform="matrix(1,-0.08748866,0,1,0,2.5795627)">
      <circle transform="matrix(1.0515465,0,0,1.0515465,-2.0618588,-1.5463941)" id="circle13" clip-path="url(#c)" r="10" cy="20" cx="30"/>
      <g id="g15" transform="translate(34.045085,20)">
        <g id="f">
          <g id="t">
            <path id="o" transform="matrix(0.95105652,0.30901699,-0.30901699,0.95105652,0.24471742,-1.545085)" d="M 5,0 0,0 0,3 Z" inkscape:connector-curvature="0"/>
            <use id="use20" transform="scale(1,-1)" xlink:href="#o" x="0" y="0" width="744.09448" height="1052.3622"/>
          </g>
          <use id="use22" transform="matrix(0.30901699,0.95105652,-0.95105652,0.30901699,0,0)" xlink:href="#t" x="0" y="0" width="744.09448" height="1052.3622"/>
        </g>
        <use id="use24" transform="matrix(0.30901699,-0.95105652,0.95105652,0.30901699,0,0)" xlink:href="#t" x="0" y="0" width="744.09448" height="1052.3622"/>
        <use id="use26" transform="matrix(-0.80901699,0.58778525,-0.58778525,-0.80901699,0,0)" xlink:href="#f" x="0" y="0" width="744.09448" height="1052.3622"/>
      </g>
    </g>
  </g>
</svg>